…
This article is designed give a brief overview of the functionality of the `xkcd()` package. 

## The `read_google_sheet()` function

This function is the `headhoncho` equivalent to the `googlesheets4::read_sheet()` function. By taking in an identifier of a (private, in your Google Drive account) Google Sheet, this function converts the data into a tibble that can be stroed in your environment and manipulated. This is the reccomended first step, although you are able to skip over it if your data of interest is originally stored in a non-Google-Sheet file. 

```{r}
example_data <- googlesheets4::read_sheet("https://docs.google.com/spreadsheets/d/1HO3e_VCqdbyRGbKOgzt57aLLlhVCP7YQGmy411tqGNc/edit#gid=0")
example_data
#> ✔ Reading from headhoncho package example data.
#> ✔ Range full_data.
#> # A tibble: 599 × 9
#>    Last_Name First_Name Student_Type   Hall            Room Room_Type Citizenship_DESC DOB                 Email            
#>    <chr>     <chr>      <chr>          <chr>          <dbl> <chr>     <chr>            <dttm>              <chr>            
#>  1 Hardy     Rosalinda  Ent First Year Togepi House     508 Quadruple Domestic         1994-06-15 00:00:00 rhardy@pokéacade…
#>  2 Pierce    Christa    Ent First Year Squirtle House   209 Single    Domestic         2001-08-10 00:00:00 cpierce@pokéacad…
#>  3 Patrick   Heriberto  Ent First Year Ho-Oh House      306 Quadruple Domestic         1993-03-06 00:00:00 hpatrick@pokéaca…
#>  4 Mason     Stefan     Ent First Year Umbreon House    212 Triple    Domestic         1994-06-09 00:00:00 smason@pokéacade…
#>  5 Booth     Mike       Ent First Year Gengar House     302 Triple    Domestic         2003-10-30 00:00:00 mbooth@pokéacade…
#>  6 Mitchell  Janice     Ent First Year Bayleef House    212 Single    Domestic         2006-11-20 00:00:00 jmitchell@pokéac…
#>  7 Boone     Quinten    Ent First Year Moltres House    405 Single    Domestic         2004-11-17 00:00:00 qboone@pokéacade…
#>  8 Ibarra    Lillie     Ent Transfer   Ditto House      103 Triple    International    2000-03-23 00:00:00 libarra@pokéacad…
#>  9 Maxwell   Elyssa     Ent First Year Gengar House     310 Single    Domestic         2004-03-10 00:00:00 emaxwell@pokéaca…
#> 10 Silva     Elizabeth  Ent First Year Ivysaur House    407 Triple    Domestic         2005-04-20 00:00:00 esilva@pokéacade…
#> # ℹ 589 more rows
#> # ℹ Use `print(n = ...)` to see more rows
```
…
## Keep all data frames regardless of if they are empty.
data_list_2 <- split_sheet(df, df$A, df$B, keep = TRUE)
data_list_2
```

Here is the `split_sheet()` function when used on the headhoncho mock dataset:

```{r}
example_data_list <- split_sheet(example_data, example_data$Citizenship_DESC)
example_data_list
#> $Domestic
#> # A tibble: 451 × 9
#>    Last_Name First_Name Student_Type   Hall            Room Room_Type Citizenship_DESC DOB                 Email           
#>    <chr>     <chr>      <chr>          <chr>          <dbl> <chr>     <chr>            <dttm>              <chr>           
#>  1 Hardy     Rosalinda  Ent First Year Togepi House     508 Quadruple Domestic         1994-06-15 00:00:00 rhardy@pokéacad…
#>  2 Pierce    Christa    Ent First Year Squirtle House   209 Single    Domestic         2001-08-10 00:00:00 cpierce@pokéaca…
#>  3 Patrick   Heriberto  Ent First Year Ho-Oh House      306 Quadruple Domestic         1993-03-06 00:00:00 hpatrick@pokéac…
#>  4 Mason     Stefan     Ent First Year Umbreon House    212 Triple    Domestic         1994-06-09 00:00:00 smason@pokéacad…
#>  5 Booth     Mike       Ent First Year Gengar House     302 Triple    Domestic         2003-10-30 00:00:00 mbooth@pokéacad…
#>  6 Mitchell  Janice     Ent First Year Bayleef House    212 Single    Domestic         2006-11-20 00:00:00 jmitchell@pokéa…
#>  7 Boone     Quinten    Ent First Year Moltres House    405 Single    Domestic         2004-11-17 00:00:00 qboone@pokéacad…
#>  8 Maxwell   Elyssa     Ent First Year Gengar House     310 Single    Domestic         2004-03-10 00:00:00 emaxwell@pokéac…
#>  9 Silva     Elizabeth  Ent First Year Ivysaur House    407 Triple    Domestic         2005-04-20 00:00:00 esilva@pokéacad…
#> 10 Harris    Justin     Ent First Year Caterpie House   411 Single    Domestic         1991-11-22 00:00:00 jharris@pokéaca…
#> # ℹ 441 more rows
#> # ℹ Use `print(n = ...)` to see more rows
#> 
#> $International
#> # A tibble: 148 × 9
#>    Last_Name First_Name Student_Type   Hall            Room Room_Type Citizenship_DESC DOB                 Email           
#>    <chr>     <chr>      <chr>          <chr>          <dbl> <chr>     <chr>            <dttm>              <chr>           
#>  1 Ibarra    Lillie     Ent Transfer   Ditto House      103 Triple    International    2000-03-23 00:00:00 libarra@pokéaca…
#>  2 Gallegos  Ernest     Ent Transfer   Torterra House   212 Triple    International    2006-11-03 00:00:00 egallegos@pokéa…
#>  3 Krause    Daisy      Ent Transfer   Zapdos House     308 Single    International    1992-06-25 00:00:00 dkrause@pokéaca…
#>  4 Gates     Kiersten   Ent Transfer   Pidgey House     413 Quadruple International    1993-11-23 00:00:00 kgates@pokéacad…
#>  5 Barrera   Kristin    Ent First Year Zapdos House     311 Triple    International    1997-08-14 00:00:00 kbarrera@pokéac…
#>  6 Pollard   Candice    Ent First Year Togepi House     508 Triple    International    2001-06-27 00:00:00 cpollard@pokéac…
#>  7 Luna      Fabian     Ent First Year Caterpie House   502 Single    International    1991-09-11 00:00:00 fluna@pokéacade…
#>  8 Marshall  Erik       Ent First Year Caterpie House   306 Quadruple International    2003-03-11 00:00:00 emarshall@pokéa…
#>  9 Lester    Hayden     Ent Transfer   Wailord House    304 Single    International    2005-12-21 00:00:00 hlester@pokéaca…
#> 10 Liu       Brianna    Ent First Year Wailord House    310 Single    International    1994-09-26 00:00:00 bliu@pokéacadem…
#> # ℹ 138 more rows
#> # ℹ Use `print(n = ...)` to see more rows
```
…
